Demografia e homicídios no Brasil
…
\((\sum_{j = 1}^{n}(txhom_{jt} - txhom_{jt-1})\overline{(\frac{pop_{jt}}{pop_{t}})})\)

Efeito Composição: parte que mede o crescimento da taxa de homicídio devidos a mudanças exclusivamente demográficas:

\((\sum_{j=1}^{n}(\frac{pop_{jt}}{pop_{t}} - \frac{pop_{jt-1}}{pop_{t}}) \overline{txhom_{j}})\)

txhom_fxetaria_ano %>%
  filter(t %in% c(1980, 1990, 2000, 2017)) %>%
  group_by(j) %>%
  mutate(
    txhom_jt0 = lag(txhom_jt, 1),
    lag_txhom = txhom_jt - txhom_jt0)

#> # A tibble: 64 x 9
#> # Groups:   j [16]
#>        t j       hom_jt pop_jt txhom_jt   pop_t txhom_t txhom_jt0 lag_txhom
#>    <int> <fct>    <dbl>  <dbl>    <dbl>   <dbl>   <dbl>     <dbl>     <dbl>
#>  1  1980 Até 04      39 3.26e6    1.20   2.50e7   13.7     NA      NA      
#>  2  1990 Até 04      39 3.11e6    1.25   3.08e7   30.3      1.20    0.0547 
#>  3  2000 Até 04      40 3.19e6    1.26   3.70e7   41.3      1.25    0.00281
#>  4  2017 Até 04      18 2.90e6    0.620  4.37e7    9.68     1.26   -0.635  
#>  5  1980 05 a 09     14 2.63e6    0.532  2.50e7   13.7     NA      NA      
#>  6  1990 05 a 09     32 3.26e6    0.980  3.08e7   30.3      0.532   0.449  
#>  7  2000 05 a 09     26 3.16e6    0.822  3.70e7   41.3      0.980  -0.158  
#>  8  2017 05 a 09     12 2.76e6    0.434  4.37e7    9.68     0.822  -0.388  
#>  9  1980 10 a 14     40 2.51e6    1.59   2.50e7   13.7     NA      NA      
#> 10  1990 10 a 14    119 3.17e6    3.75   3.08e7   30.3      1.59    2.16   
#> # … with 54 more rows
…
